module gitlab.com/figuerom16/moxylib

go 1.24.0

require (
	github.com/alexedwards/argon2id v1.0.0
	github.com/go-playground/form/v4 v4.2.1
	github.com/go-playground/mold/v4 v4.5.1
	github.com/go-playground/validator/v10 v10.24.0
	github.com/klauspost/compress v1.17.11
	github.com/ncruces/go-sqlite3 v0.23.0
	golang.org/x/crypto v0.33.0
	golang.org/x/sys v0.30.0
	golang.org/x/time v0.10.0
)

require (
	github.com/gabriel-vasile/mimetype v1.4.8 // indirect
	github.com/go-playground/locales v0.14.1 // indirect
	github.com/go-playground/universal-translator v0.18.1 // indirect
	github.com/gosimple/slug v1.15.0 // indirect
	github.com/gosimple/unidecode v1.0.1 // indirect
	github.com/leodido/go-urn v1.4.0 // indirect
	github.com/ncruces/julianday v1.0.0 // indirect
	github.com/segmentio/go-camelcase v0.0.0-20160726192923-7085f1e3c734 // indirect
	github.com/segmentio/go-snakecase v1.2.0 // indirect
	github.com/tetratelabs/wazero v1.8.2 // indirect
	golang.org/x/net v0.35.0 // indirect
	golang.org/x/text v0.22.0 // indirect
)
